<svg width="296" height="97" viewBox="0 0 296 97" fill="none" xmlns="http://www.w3.org/2000/svg">
<path fill-rule="evenodd" clip-rule="evenodd" d="M261.701 42.356L248.328 55.92L257.564 74.282H247.903L242.272 62.3603L238.596 66.0492L237.159 74.282H227.023L232.676 42.356H242.812L240.468 55.5765L253.085 42.356H261.701Z" fill="#070809"/>
<path fill-rule="evenodd" clip-rule="evenodd" d="M290.311 60.2241L288.172 72.2925C288.172 72.3855 287.506 72.6682 286.163 73.1619C284.831 73.6521 283.095 74.0994 280.982 74.4965C278.868 74.8973 276.604 75.1012 274.18 75.1012C271.134 75.1012 268.675 74.679 266.792 73.8346C264.909 73.0009 263.541 71.7558 262.702 70.1243C261.852 68.4927 261.427 66.4819 261.427 64.0847C261.427 62.2563 261.679 60.0094 262.187 57.3581C264.243 47.1037 270.032 41.8513 279.56 41.6008C281.893 41.6008 283.949 41.7046 285.717 41.9085C287.499 42.1125 288.9 42.3415 289.922 42.5812C290.956 42.8316 291.474 42.9819 291.474 43.0392L291.611 50.0269C291.611 50.0269 291.164 49.823 290.268 49.4222C289.382 49.0215 288.28 48.6566 286.97 48.3274C285.67 47.9946 284.154 47.8372 282.455 47.8372C282.04 47.8372 281.328 47.8837 280.316 47.9732C277.799 48.1914 275.891 49.1145 274.584 50.7246C273.284 52.3454 272.366 54.596 271.836 57.4834C271.332 60.2133 271.077 62.3351 271.077 63.8557C271.077 67.1903 272.43 68.9722 275.131 69.2119C276.6 69.2119 277.878 69.0974 278.944 68.8791C280.024 68.6501 280.784 68.4677 281.209 68.321L282.656 60.2241H290.311Z" fill="#070809"/>
<path fill-rule="evenodd" clip-rule="evenodd" d="M1 59.7123C5.2451 61.2258 9.47579 62.7249 13.7101 64.2277C19.7663 42.5453 118.628 46.2664 196.249 44.1697C196.328 43.4076 196.292 43.794 196.372 43.0212C110.462 42.1374 20.3856 39.9513 1 59.7123ZM15.3988 64.539C19.6331 66.0417 23.8638 67.5409 28.098 69.0543C34.1542 47.3719 133.016 51.093 210.637 48.9963C210.716 48.2235 210.68 48.6099 210.76 47.8371C124.85 46.9497 34.7735 44.7779 15.3988 64.539ZM29.117 69.5373C33.3513 71.0401 37.582 72.55 41.8163 74.0527C47.8725 52.3703 146.745 56.0914 224.366 53.9947C224.445 53.2219 224.399 53.6083 224.478 52.8462C138.568 51.9517 48.4918 49.7763 29.117 69.5373Z" fill="#C1101D"/>
<path fill-rule="evenodd" clip-rule="evenodd" d="M48.0597 91.7387V82.7187H40.5165V83.8672C40.5165 85.7456 40.4481 87.2913 40.304 88.515C40.16 89.7386 39.8612 90.812 39.4039 91.7387H38.4713V95.9464H40.3148V93.5849H47.1704V95.9464H49.0139V91.7387H48.0597ZM45.8382 91.7387H41.7047C42.3168 90.2359 42.6264 87.8423 42.6264 84.5506H45.8382V91.7387ZM51.293 82.7187V90.7762C51.293 91.2628 51.2138 91.5598 51.059 91.6814C50.9042 91.8138 50.5801 91.8675 50.1265 91.8675L49.6368 91.8568V93.5563C50.3137 93.61 50.7818 93.635 51.0374 93.635C51.7827 93.635 52.3156 93.4919 52.6577 93.1949C53.0033 92.9087 53.223 92.4901 53.313 91.9712C53.403 91.4417 53.4462 90.515 53.4462 89.1876V84.5506H56.7227V93.5813H58.9335V82.7187H51.293ZM65.3137 82.7187C64.2156 82.7187 63.391 82.8081 62.8473 82.9834C62.2929 83.1588 61.8464 83.5022 61.5151 84.0103C61.1803 84.5184 61.0146 85.1016 61.0146 85.7671C61.0146 86.5292 61.2379 87.1804 61.6916 87.7314C62.1344 88.2717 62.8689 88.6259 63.8915 88.7905C63.4126 89.0552 63.0238 89.3522 62.7141 89.6957C62.4045 90.0284 61.9796 90.6116 61.4575 91.4632L60.1253 93.5813H62.7681L64.3452 91.2091C65.0329 90.1823 65.5226 89.5633 65.8106 89.3558C66.0987 89.1447 66.5884 89.0481 67.2869 89.0481H67.7441V93.5849H69.9549V82.7223H65.3137V82.7187ZM67.7478 87.3128H66.1131C65.2021 87.3128 64.6008 87.2913 64.302 87.234C64.0139 87.1804 63.7691 87.0337 63.5675 86.8154C63.3802 86.5936 63.2902 86.2859 63.2902 85.8995C63.2902 85.5345 63.3802 85.2376 63.5783 85.0157C63.7799 84.7832 64.0211 84.6508 64.2876 84.6078C64.5648 84.5756 65.1445 84.5542 66.0195 84.5542H67.7405V87.3128H67.7478ZM75.6438 82.7187V84.5506H78.8772V93.5813H81.0879V84.5506H84.3105V82.7187H75.6438ZM87.9543 91.7387V88.8012H93.42V86.9693H87.9543V84.5506H93.8304V82.7187H85.7435V93.5813H94.0429V91.7387H87.9543ZM101.197 87.921L104.629 82.7223H102.04L99.8974 85.9567L97.7407 82.7223H95.1626L98.5832 87.921L94.8062 93.5849H97.4598L99.883 89.896L102.306 93.5849H104.96L101.197 87.921ZM121.148 90.6009C120.77 89.8388 120.414 89.2413 120.093 88.8227C119.773 88.404 119.369 88.1285 118.883 87.9962C119.272 87.7636 119.549 87.531 119.704 87.277C119.859 87.0229 120.003 86.7152 120.147 86.3396C120.392 85.6347 120.579 85.1588 120.712 84.937C120.846 84.7044 121.011 84.5399 121.224 84.4289C121.425 84.3073 121.757 84.2536 122.214 84.2536L122.524 84.2643V82.64C122.358 82.6507 122.257 82.6507 122.203 82.6507C121.191 82.6507 120.46 82.7938 119.992 83.08C119.539 83.3663 119.071 84.0962 118.624 85.2662C118.257 86.1929 117.99 86.7582 117.814 86.9657C117.648 87.1661 117.313 87.2841 116.813 87.3414V82.7151H114.602V93.5778H116.813V88.8298C117.191 88.8298 117.458 88.8978 117.634 89.0302C117.81 89.1733 118.044 89.506 118.322 90.0356C118.476 90.3433 118.577 90.5114 118.599 90.5544C118.667 90.6653 118.711 90.7404 118.721 90.7762L120.032 93.5813H122.632L121.148 90.6009ZM123.492 82.7187V84.5506H126.725V93.5813H128.936V84.5506H132.159V82.7187H123.492ZM141.913 84.0103C140.948 83.0156 139.659 82.5183 138.046 82.5183C137.156 82.5183 136.368 82.6614 135.68 82.9477C135.169 83.1588 134.701 83.4879 134.269 83.9316C133.847 84.3717 133.502 84.869 133.257 85.4236C132.922 86.175 132.756 87.1017 132.756 88.218C132.756 89.9497 133.235 91.3093 134.189 92.2933C135.154 93.2879 136.443 93.771 138.067 93.771C139.677 93.771 140.955 93.2844 141.924 92.2933C142.878 91.2986 143.357 89.9211 143.357 88.1643C143.357 86.3968 142.881 85.005 141.913 84.0103ZM140.235 90.9444C139.67 91.5848 138.946 91.8925 138.067 91.8925C137.189 91.8925 136.458 91.5741 135.889 90.9444C135.313 90.3039 135.021 89.3772 135.021 88.1393C135.021 86.8906 135.309 85.9531 135.867 85.3342C136.425 84.7152 137.156 84.3967 138.067 84.3967C138.978 84.3967 139.713 84.7044 140.256 85.3234C140.811 85.9317 141.088 86.8584 141.088 88.1071C141.092 89.3772 140.804 90.3147 140.235 90.9444ZM158.033 91.7387V82.7187H155.822V91.7387H151.566V82.7187H149.355V93.5813H157.111V95.9428H158.954V91.7387H158.033ZM162.688 91.7387V88.8012H168.143V86.9693H162.688V84.5506H168.553V82.7187H160.467V93.5813H168.777V91.7387H162.688ZM177.163 82.7187V86.9907H172.863V82.7187H170.653V93.5813H172.863V88.8334H177.163V93.5813H179.373V82.7187H177.163ZM188.184 82.7187L183.762 89.9497V82.7187H181.696V93.5813H183.896L188.328 86.4612V93.5813H190.384V82.7187H188.184ZM191.86 82.7187V84.5506H195.093V93.5813H197.304V84.5506H200.527V82.7187H191.86ZM214.825 88.7797C214.468 88.3146 213.957 87.9854 213.291 87.7958C213.759 87.5847 214.133 87.2662 214.414 86.8369C214.681 86.4183 214.825 85.9531 214.825 85.4451C214.825 84.9799 214.713 84.5506 214.49 84.1749C214.256 83.7992 213.979 83.5022 213.647 83.2697C213.312 83.0478 212.938 82.894 212.502 82.8296C212.081 82.7509 211.437 82.7187 210.569 82.7187H206.201V93.5813H209.924C211.325 93.5706 212.214 93.5384 212.578 93.5026C213.168 93.4346 213.654 93.2593 214.054 92.9838C214.465 92.7083 214.778 92.3326 215.008 91.8675C215.242 91.3916 215.354 90.9193 215.354 90.422C215.358 89.7959 215.181 89.2449 214.825 88.7797ZM208.416 84.5184H209.683C210.716 84.5184 211.35 84.5398 211.559 84.5613C211.926 84.6043 212.203 84.7259 212.391 84.937C212.578 85.1481 212.668 85.4236 212.668 85.7528C212.668 86.107 212.567 86.3825 212.347 86.6043C212.135 86.8154 211.836 86.9478 211.458 86.9907C211.246 87.0122 210.713 87.0229 209.859 87.0229H208.416V84.5184ZM212.769 91.2413C212.567 91.4739 212.301 91.617 211.969 91.6707C211.757 91.7136 211.246 91.7387 210.457 91.7387H208.412V88.837H210.191C211.202 88.837 211.858 88.8799 212.157 88.9908C212.456 89.091 212.69 89.2556 212.844 89.4882C212.999 89.7207 213.078 89.9855 213.078 90.3147C213.082 90.7011 212.981 91.0124 212.769 91.2413ZM224.946 83.9459C224.525 83.4056 224.003 83.0514 223.38 82.8868C222.969 82.7759 222.102 82.7223 220.758 82.7223H217.226V93.5849H219.437V89.4882H220.87C221.871 89.4882 222.624 89.4345 223.16 89.3236C223.538 89.2449 223.927 89.0695 224.294 88.8155C224.672 88.5507 224.982 88.1965 225.227 87.7457C225.461 87.2949 225.583 86.7296 225.583 86.0676C225.58 85.1946 225.367 84.4862 224.946 83.9459ZM223.056 86.9371C222.89 87.1911 222.667 87.3664 222.379 87.4773C222.08 87.5883 221.5 87.6419 220.636 87.6419H219.437V84.5506H220.492C221.291 84.5506 221.813 84.5721 222.08 84.6293C222.436 84.6973 222.724 84.8511 222.958 85.1159C223.192 85.3699 223.315 85.7027 223.315 86.0998C223.311 86.4183 223.225 86.6938 223.056 86.9371ZM229.612 91.7387V88.8012H235.078V86.9693H229.612V84.5506H235.488V82.7187H227.402V93.5813H235.701V91.7387H229.612ZM244.753 82.7187L242.819 90.125L240.864 82.7187H237.541V93.5813H239.586L239.597 85.0265L241.739 93.5813H243.871L246.013 85.0265L246.024 93.5813H248.069V82.7187H244.753ZM254.384 82.7187C253.297 82.7187 252.472 82.8081 251.918 82.9834C251.374 83.1588 250.928 83.5022 250.597 84.0103C250.262 84.5184 250.096 85.1016 250.096 85.7671C250.096 86.5292 250.319 87.1804 250.762 87.7314C251.219 88.2717 251.95 88.6259 252.962 88.7905C252.494 89.0552 252.105 89.3522 251.796 89.6957C251.486 90.0284 251.061 90.6116 250.539 91.4632L249.207 93.5813H251.839L253.427 91.2091C254.114 90.1823 254.604 89.5633 254.892 89.3558C255.18 89.1447 255.67 89.0481 256.368 89.0481H256.811V93.5849H259.022V82.7223H254.384V82.7187ZM256.818 87.3128H255.184C254.284 87.3128 253.671 87.2913 253.383 87.234C253.085 87.1804 252.84 87.0337 252.649 86.8154C252.462 86.5936 252.361 86.2859 252.361 85.8995C252.361 85.5345 252.462 85.2376 252.66 85.0157C252.861 84.7832 253.092 84.6508 253.369 84.6078C253.646 84.5756 254.226 84.5542 255.09 84.5542H256.811V87.3128H256.818ZM106.018 91.4954V93.5813H107.03C107.019 93.9999 106.929 94.3327 106.753 94.5653C106.577 94.8086 106.274 95.0054 105.853 95.1377L106.263 96C106.706 95.8462 107.073 95.6351 107.361 95.3488C107.649 95.0733 107.851 94.7621 107.963 94.4114C108.064 94.0679 108.118 93.5956 108.118 92.9874V91.4954H106.018ZM261.506 82.7187V85.2698L262.05 90.7905H263.238L263.771 85.2698V82.7187H261.506ZM261.607 91.4954V93.5813H263.696V91.4954H261.607Z" fill="#070809"/>
<path fill-rule="evenodd" clip-rule="evenodd" d="M15.2835 0L50.4073 0.153852L48.9275 8.25433H23.7269L22.6899 12.8806L46.4791 12.7948L44.5671 20.5589L20.5152 20.5446L19.6186 25.8936L44.5671 25.729L42.4716 34.1802H9.16253L15.2835 0Z" fill="#C1101D"/>
<path fill-rule="evenodd" clip-rule="evenodd" d="M53.4174 0.153852H64.7269L72.2197 10.2151L84.3897 0H97.7731L77.2317 16.9488L90.0426 34.1551H77.0733L69.5265 23.3104L56.1647 34.334L43.6094 34.2303L64.7701 16.4693L53.4174 0.153852Z" fill="#C1101D"/>
<path fill-rule="evenodd" clip-rule="evenodd" d="M128.281 0.153809H100.261L92.275 34.1801H102.029L103.952 26.0224L124.648 25.8578C135.216 24.7522 141.646 0.46509 128.281 0.153809ZM120.37 17.0668L106.562 16.8557L108.251 8.20062H120.882C127.683 8.2042 128.313 17.1777 120.37 17.0668Z" fill="#C1101D"/>
<path fill-rule="evenodd" clip-rule="evenodd" d="M173.753 0.210938H140.757L132.35 34.3339H143.025L144.836 25.2602L162.677 25.1707C163.966 28.0617 163.387 30.7237 161.867 34.1442L171.556 34.2981C172.766 30.4768 174.577 24.9704 170.869 20.5194C178.376 17.1346 182.095 0.210938 173.753 0.210938ZM161.622 17.0667L147.036 16.8556L148.815 8.2005H162.17C169.342 8.20408 170.019 17.1776 161.622 17.0667Z" fill="#C1101D"/>
<path fill-rule="evenodd" clip-rule="evenodd" d="M182.34 0L217.46 0.153852L215.984 8.25433H190.78L189.747 12.8806L213.532 12.7948L211.62 20.5589L187.568 20.5446L186.672 25.8936L211.62 25.729L209.525 34.1802H176.216L182.34 0Z" fill="#C1101D"/>
<path fill-rule="evenodd" clip-rule="evenodd" d="M224.597 0.11792C233.832 0.11792 243.064 0.11792 252.3 0.11792C256.145 2.7012 256.502 6.29704 254.676 10.5298L245.516 10.5083C245.959 9.35977 245.833 8.32932 245.307 7.38832L228.122 7.59942C226.797 8.79445 226.667 10.4475 227.488 12.469L245.531 12.6765C257.211 13.0737 252.735 29.704 245.556 34.1943H218.008C213.835 33.1531 212.949 29.0814 214.094 22.5982L223.2 22.5481C223.027 24.7163 222.742 26.5411 224.748 26.6305C227.218 26.7415 230.473 26.6091 233.677 26.6091L242.42 26.6055C244.231 24.6054 244.256 22.4121 242.196 20.2725L222.145 20.5623C219.289 20.3942 218.011 19.1598 217.439 17.4459C216.765 11.1523 217.64 3.96064 224.597 0.11792Z" fill="#C1101D"/>
<path fill-rule="evenodd" clip-rule="evenodd" d="M264.855 0.11792C274.09 0.11792 283.322 0.11792 292.558 0.11792C296.403 2.7012 296.76 6.29704 294.934 10.5298L285.774 10.5083C286.217 9.35977 286.091 8.32932 285.566 7.38832L268.38 7.59942C267.055 8.79445 266.925 10.4475 267.746 12.469L285.789 12.6765C297.469 13.0737 292.994 29.704 285.814 34.1943H258.266C254.093 33.1531 253.207 29.0814 254.352 22.5982L263.458 22.5481C263.285 24.7163 263.001 26.5411 265.006 26.6305C267.476 26.7415 270.731 26.6091 273.936 26.6091L282.678 26.6055C284.489 24.6054 284.514 22.4121 282.455 20.2725L262.403 20.5623C259.548 20.3942 258.269 19.1598 257.697 17.4459C257.024 11.1523 257.899 3.96064 264.855 0.11792Z" fill="#C1101D"/>
</svg>
