<svg width="444" height="278" viewBox="0 0 444 278" fill="none" xmlns="http://www.w3.org/2000/svg">
<g opacity="0.05">
<mask id="mask0" mask-type="alpha" maskUnits="userSpaceOnUse" x="0" y="0" width="429" height="278">
<rect width="429" height="278" rx="30" fill="#F8F8F8"/>
</mask>
<g mask="url(#mask0)">
<path d="M451.345 113.208L409.037 152.617L388.742 132.005C386.487 129.762 382.729 129.655 380.474 131.898C378.112 134.141 378.112 137.772 380.367 140.121L404.742 164.792C406.997 167.035 410.648 167.142 413.01 165.006L459.613 121.645C460.794 120.577 461.439 119.189 461.439 117.587C461.439 116.091 460.902 114.596 459.828 113.421C457.466 111.072 453.707 110.965 451.345 113.208Z" fill="#00B90E"/>
<path d="M419.883 52.4384C371.454 52.4384 332.153 91.3136 332.153 139.053C332.153 186.793 371.454 225.668 419.883 225.668C468.311 225.668 507.612 186.793 507.612 139.053C507.612 91.3136 468.311 52.4384 419.883 52.4384ZM419.883 214.027C377.897 214.027 343.858 180.385 343.858 139.053C343.858 97.7215 377.897 64.0796 419.883 64.0796C461.868 64.0796 495.908 97.6147 495.908 139.053C495.908 180.491 461.868 214.027 419.883 214.027Z" fill="#00B90E"/>
<path d="M540.685 107.12L542.618 72.7307C542.725 70.3811 541.437 68.2451 539.397 67.1771L508.364 51.6911L492.686 21.2532C491.613 19.224 489.465 17.9424 487.103 18.0492L452.204 19.8648L423.104 0.961199C421.171 -0.3204 418.594 -0.3204 416.661 0.961199L387.561 19.8648L352.77 17.9424C350.408 17.8356 348.26 19.0104 347.186 21.1464L331.509 51.7979L300.476 67.2839C298.436 68.3519 297.147 70.4879 297.255 72.8375L299.187 107.227L279.966 135.956C278.678 137.879 278.678 140.442 279.966 142.364L299.08 170.88L297.147 205.269C297.04 207.619 298.328 209.755 300.369 210.823L331.401 226.309L347.079 256.854C348.153 258.883 350.3 260.164 352.663 260.058L387.454 258.135L416.554 277.039C418.487 278.32 421.064 278.32 422.997 277.039L452.097 258.135L486.888 260.058C489.25 260.164 491.398 258.99 492.472 256.854L508.149 226.309L539.182 210.823C541.222 209.755 542.511 207.619 542.403 205.269L540.578 170.88L559.799 142.151C561.087 140.228 561.087 137.665 559.799 135.743L540.685 107.12ZM529.732 166.181C528.981 167.249 528.659 168.423 528.766 169.705L530.591 202.172L501.277 216.804C500.203 217.338 499.237 218.299 498.7 219.367L483.881 248.31L450.915 246.494C449.627 246.494 448.446 246.814 447.372 247.455L419.883 265.398L392.393 247.455C391.427 246.814 390.353 246.494 389.172 246.494H388.85L355.884 248.31L341.066 219.367C340.529 218.299 339.562 217.338 338.489 216.804L309.066 202.279L310.892 169.812C310.892 168.53 310.57 167.355 309.925 166.287L291.886 139.053L310.033 111.926C310.785 110.858 311.107 109.683 310.999 108.402L309.174 75.8279L338.489 61.1963C339.562 60.7691 340.529 59.8079 341.066 58.7399L355.884 29.7972L388.85 31.6128C390.138 31.6128 391.32 31.2924 392.393 30.6516L419.883 12.7092L447.372 30.6516C448.446 31.3992 449.734 31.7196 450.915 31.6128L483.881 29.7972L498.7 58.7399C499.237 59.8079 500.203 60.7691 501.277 61.3031L530.591 75.9347L528.766 108.402C528.766 109.683 529.088 110.858 529.732 111.926L547.88 139.053L529.732 166.181Z" fill="#00B90E"/>
</g>
</g>
</svg>
