<svg width="46" height="46" viewBox="0 0 46 46" fill="none" xmlns="http://www.w3.org/2000/svg">
<g clip-path="url(#clip0)">
<path d="M34.8719 21.7378L13.631 0.496861C12.9278 -0.18227 11.8072 -0.162772 11.1281 0.540421C10.4656 1.2264 10.4656 2.31386 11.1281 2.99973L31.1176 22.9893L11.1281 42.9788C10.437 43.67 10.437 44.7905 11.1281 45.4817C11.8194 46.1728 12.9398 46.1728 13.631 45.4817L34.8719 24.2407C35.563 23.5494 35.563 22.429 34.8719 21.7378Z" fill="#4F4F4F"/>
</g>
<defs>
<clipPath id="clip0">
<rect width="46" height="46" fill="white"/>
</clipPath>
</defs>
</svg>
